[
	{
		"id": "user001",
		"firstName": "Emvir",
		"lastName": "Rivera",
		"email": "riveraemvir@gmail.com",
		"password": "Asteriskwar",
		"isAdmin": true,
		"mobileNumber": "+639214804612"
	},

	{
		"id": "user002",
		"firstName": "Jude",
		"lastName": "Sapiera",
		"email": "example@gmail.com",
		"password": "Asteriskwar",
		"isAdmin": false,
		"mobileNumber": "+639214804612"
	},

	{
		"id": "user003",
		"firstName": "Ralf",
		"lastName": "Jovenal",
		"email": "example2@gmail.com",
		"password": "Asteriskwar",
		"isAdmin": false,
		"mobileNumber": "+639214804612"
	}
]